Statistical Computing (BSPH 140.776) - 09 - Tidy data and the Tidyverse
…
While this format is canonical and is useful for quickly observing the relationship between multiple variables, it is not tidy.

This format violates the tidy form because there are variables in the columns.

In this case the variables are religion, income bracket, and the number of respondents, which is the third variable, is presented inside the table.

Converting this data to tidy format would give us

library(tidyverse)

relig_income %>%
    pivot_longer(-religion, names_to = "income", values_to = "respondents") %>%
    mutate(religion = factor(religion), income = factor(income))

# A tibble: 180 × 3
   religion income             respondents
   <fct>    <fct>                    <dbl>
 1 Agnostic <$10k                       27
 2 Agnostic $10-20k                     34
 3 Agnostic $20-30k                     60
 4 Agnostic $30-40k                     81
 5 Agnostic $40-50k                     76
 6 Agnostic $50-75k                    137
 7 Agnostic $75-100k                   122
 8 Agnostic $100-150k                  109
 9 Agnostic >150k                       84
10 Agnostic Don't know/refused          96
# ℹ 170 more rows
…
In the section above, we showed an example that used pivot_longer() to convert data into a tidy format.

The key problem with the tidyness of the data is that the income variables are not in their own columns, but rather are embedded in the structure of the columns.

To fix this, you can use the pivot_longer() function to gather values spread across several columns into a single column, here with the column names gathered into an income column.

Note: when gathering, exclude any columns that you do not want “gathered” (religion in this case) by including the column names with a the minus sign in the pivot_longer() function.

For example:

# Gather everything EXCEPT religion to tidy data
relig_income %>%
    pivot_longer(-religion, names_to = "income", values_to = "respondents")

# A tibble: 180 × 3
   religion income             respondents
   <chr>    <chr>                    <dbl>
 1 Agnostic <$10k                       27
 2 Agnostic $10-20k                     34
 3 Agnostic $20-30k                     60
 4 Agnostic $30-40k                     81
 5 Agnostic $40-50k                     76
 6 Agnostic $50-75k                    137
 7 Agnostic $75-100k                   122
 8 Agnostic $100-150k                  109
 9 Agnostic >150k                       84
10 Agnostic Don't know/refused          96
# ℹ 170 more rows
…
Notice in this example how pivot_wider() has been used at the very end of the code sequence to convert the summarized data into a shape that offers a better tabular presentation for a report.

Note

In the pivot_wider() call, you first specify the name of the column to use for the new column names (income in this example) and then specify the column to use for the cell values (total_respondents here).

Example of pivot_longer()

Let’s try another dataset. This data contain an excerpt of the Gapminder data on life expectancy, GDP per capita, and population by country.

library(gapminder)
gapminder

# A tibble: 1,704 × 6
   country     continent  year lifeExp      pop gdpPercap
   <fct>       <fct>     <int>   <dbl>    <int>     <dbl>
 1 Afghanistan Asia       1952    28.8  8425333      779.
 2 Afghanistan Asia       1957    30.3  9240934      821.
 3 Afghanistan Asia       1962    32.0 10267083      853.
 4 Afghanistan Asia       1967    34.0 11537966      836.
 5 Afghanistan Asia       1972    36.1 13079460      740.
 6 Afghanistan Asia       1977    38.4 14880372      786.
 7 Afghanistan Asia       1982    39.9 12881816      978.
 8 Afghanistan Asia       1987    40.8 13867957      852.
 9 Afghanistan Asia       1992    41.7 16317921      649.
10 Afghanistan Asia       1997    41.8 22227415      635.
# ℹ 1,694 more rows
…
unite(): combine contents of two or more columns into a single column

separate(): separate contents of a column into two or more columns

First, we combine the first three columns into one new column using unite().

gapminder %>%
    unite(
        col = "country_continent_year",
        country:year,
        sep = "_"
    )

# A tibble: 1,704 × 4
   country_continent_year lifeExp      pop gdpPercap
   <chr>                    <dbl>    <int>     <dbl>
 1 Afghanistan_Asia_1952     28.8  8425333      779.
 2 Afghanistan_Asia_1957     30.3  9240934      821.
 3 Afghanistan_Asia_1962     32.0 10267083      853.
 4 Afghanistan_Asia_1967     34.0 11537966      836.
 5 Afghanistan_Asia_1972     36.1 13079460      740.
 6 Afghanistan_Asia_1977     38.4 14880372      786.
 7 Afghanistan_Asia_1982     39.9 12881816      978.
 8 Afghanistan_Asia_1987     40.8 13867957      852.
 9 Afghanistan_Asia_1992     41.7 16317921      649.
10 Afghanistan_Asia_1997     41.8 22227415      635.
# ℹ 1,694 more rows
Next, we show how to separate the columns into three separate columns using separate() using the col, into and sep arguments.

gapminder %>%
    unite(
        col = "country_continent_year",
        country:year,
        sep = "_"
    ) %>%
    separate(
        col = "country_continent_year",
        into = c("country", "continent", "year"),
        sep = "_"
    )

# A tibble: 1,704 × 6
   country     continent year  lifeExp      pop gdpPercap
   <chr>       <chr>     <chr>   <dbl>    <int>     <dbl>
 1 Afghanistan Asia      1952     28.8  8425333      779.
 2 Afghanistan Asia      1957     30.3  9240934      821.
 3 Afghanistan Asia      1962     32.0 10267083      853.
 4 Afghanistan Asia      1967     34.0 11537966      836.
 5 Afghanistan Asia      1972     36.1 13079460      740.
 6 Afghanistan Asia      1977     38.4 14880372      786.
 7 Afghanistan Asia      1982     39.9 12881816      978.
 8 Afghanistan Asia      1987     40.8 13867957      852.
 9 Afghanistan Asia      1992     41.7 16317921      649.
10 Afghanistan Asia      1997     41.8 22227415      635.
# ℹ 1,694 more rows
…
