20 - Working with dates and times – Statistical Computing (BSPH 140.776)
…
[1] "2016-04-05" "2016-05-06" "2016-10-04"

Cool right?

2. From individual date-time components

Sometimes the date components will come across multiple columns in a dataset.

library("nycflights13")

flights %>%
    select(year, month, day)

# A tibble: 336,776 × 3
    year month   day
   <int> <int> <int>
 1  2013     1     1
 2  2013     1     1
 3  2013     1     1
 4  2013     1     1
 5  2013     1     1
 6  2013     1     1
 7  2013     1     1
 8  2013     1     1
 9  2013     1     1
10  2013     1     1
# ℹ 336,766 more rows

To create a date/time from this sort of input, use

make_date(year, month, day) for dates, or

make_datetime(year, month, day, hour, min, sec, tz) for date-times

We combine these functions inside of mutate to add a new column to our dataset:

flights %>%
    select(year, month, day) %>%
    mutate(departure = make_date(year, month, day))

# A tibble: 336,776 × 4
    year month   day departure 
   <int> <int> <int> <date>    
 1  2013     1     1 2013-01-01
 2  2013     1     1 2013-01-01
 3  2013     1     1 2013-01-01
 4  2013     1     1 2013-01-01
 5  2013     1     1 2013-01-01
 6  2013     1     1 2013-01-01
 7  2013     1     1 2013-01-01
 8  2013     1     1 2013-01-01
 9  2013     1     1 2013-01-01
10  2013     1     1 2013-01-01
# ℹ 336,766 more rows

NoteQuestions

The flights also contains a hour and minute column.

flights %>%
    select(year, month, day, hour, minute)

# A tibble: 336,776 × 5
    year month   day  hour minute
   <int> <int> <int> <dbl>  <dbl>
 1  2013     1     1     5     15
 2  2013     1     1     5     29
 3  2013     1     1     5     40
 4  2013     1     1     5     45
 5  2013     1     1     6      0
 6  2013     1     1     5     58
 7  2013     1     1     6      0
 8  2013     1     1     6      0
 9  2013     1     1     6      0
10  2013     1     1     6      0
# ℹ 336,766 more rows
…
week(x)

[1] 43 17

Visualizing Dates

Reading in the Data

library(here)
library(readr)
storm <- read_csv(here("data", "storms_2004.csv.gz"), progress = FALSE)
storm

# A tibble: 52,409 × 51
   BEGIN_YEARMONTH BEGIN_DAY BEGIN_TIME END_YEARMONTH END_DAY END_TIME
             <dbl>     <dbl>      <dbl>         <dbl>   <dbl>    <dbl>
 1          200412        29       1800        200412      30     1200
 2          200412        29       1800        200412      30     1200
 3          200412         8       1800        200412       8     1800
 4          200412        19       1500        200412      19     1700
 5          200412        14        600        200412      14      800
 6          200412        21        400        200412      21      800
 7          200412        21        400        200412      21      800
 8          200412        26       1500        200412      27      800
 9          200412        26       1500        200412      27      800
10          200412        11        800        200412      11     1300
# ℹ 52,399 more rows
# ℹ 45 more variables: EPISODE_ID <dbl>, EVENT_ID <dbl>, STATE <chr>,
#   STATE_FIPS <dbl>, YEAR <dbl>, MONTH_NAME <chr>, EVENT_TYPE <chr>,
#   CZ_TYPE <chr>, CZ_FIPS <dbl>, CZ_NAME <chr>, WFO <chr>,
#   BEGIN_DATE_TIME <chr>, CZ_TIMEZONE <chr>, END_DATE_TIME <chr>,
#   INJURIES_DIRECT <dbl>, INJURIES_INDIRECT <dbl>, DEATHS_DIRECT <dbl>,
#   DEATHS_INDIRECT <dbl>, DAMAGE_PROPERTY <chr>, DAMAGE_CROPS <chr>, …
…
Create a new column called begin that contains the BEGIN_DATE_TIME that has been converted to a date/time R object.

Rename the EVENT_TYPE column as type.

Rename the DEATHS_DIRECT column as deaths.

library(dplyr)

# try it yourself

Next, we do some wrangling to create a storm_sub data frame (code chunk set to echo=FALSE for the purposes of the lecture, but code is in the R Markdown).

storm_sub

# A tibble: 52,409 × 3
   begin               type             deaths
   <dttm>              <chr>             <dbl>
 1 2004-12-29 18:00:00 Heavy Snow            0
 2 2004-12-29 18:00:00 Heavy Snow            0
 3 2004-12-08 18:00:00 Winter Storm          0
 4 2004-12-19 15:00:00 High Wind             0
 5 2004-12-14 06:00:00 Winter Weather        0
 6 2004-12-21 04:00:00 Winter Storm          0
 7 2004-12-21 04:00:00 Winter Storm          0
 8 2004-12-26 15:00:00 Winter Storm          0
 9 2004-12-26 15:00:00 Winter Storm          0
10 2004-12-11 08:00:00 Storm Surge/Tide      0
# ℹ 52,399 more rows
…
