12 - The ggplot2 plotting system: qplot() – Statistical Computing (BSPH 140.776)
…
This case study will use data based on the Mouse Allergen and Asthma Cohort Study (MAACS). This study was aimed at characterizing the indoor (home) environment and its relationship with asthma morbidity amonst children aged 5–17 living in Baltimore, MD. The children all had persistent asthma, defined as having had an exacerbation in the past year. A representative publication of results from this study can be found in this paper by Lu, et al.

Because the individual-level data for this study are protected by various U.S. privacy laws, we cannot make those data available. For the purposes of this lesson, we have simulated data that share many of the same features of the original data, but do not contain any of the actual measurements or values contained in the original dataset.

Here is a snapshot of what the data look like.

library(here)

here() starts at /Users/leocollado/Dropbox/Code/jhustatcomputing2023

maacs <- read_csv(here("data", "maacs_sim.csv"), col_types = "icnn")
maacs

# A tibble: 750 × 4
      id mopos  pm25    eno
   <int> <chr> <dbl>  <dbl>
 1     1 yes    6.01  28.8 
 2     2 no    25.2   17.7 
 3     3 yes   21.8   43.6 
 4     4 no    13.4  288.  
 5     5 no    49.4    7.60
 6     6 no    43.4   12.0 
 7     7 yes   33.0   79.2 
 8     8 yes   32.7   34.2 
 9     9 yes   52.2   12.1 
10    10 yes   51.9   65.0 
# ℹ 740 more rows
…
